{"failedCount":0,"prefixedPath":"src\/test\/resources\/features\/ConfigDemo.feature","packageQualifiedName":"src.test.resources.features.ConfigDemo","loopIndex":-1,"relativePath":"src\/test\/resources\/features\/ConfigDemo.feature","scenarioResults":[{"sectionIndex":0,"stepResults":[{"result":{"nanos":1215400,"millis":1.2154,"status":"passed"},"step":{"background":true,"line":4,"prefix":"*","index":0,"text":"url baseURL"},"stepLog":"10:55:19.305 The value of env is :  null \n"},{"result":{"nanos":4315500,"millis":4.3155,"status":"passed"},"step":{"background":true,"line":5,"prefix":"*","index":1,"text":"headers Accept = 'application\/json'"},"stepLog":"10:55:19.344 did not evaluate to map Accept = 'application\/json': [type: STRING, value: application\/json]\n"},{"result":{"nanos":2664100,"millis":2.6641,"status":"passed"},"step":{"line":8,"prefix":"Given","index":0,"text":"print name"},"stepLog":"10:55:19.347 [print] Jay \n"}],"executorName":"main","line":7,"name":"Config demo 1","description":"","durationMillis":8.195,"startTime":1656842119162,"failed":false,"refId":"[1:7]","endTime":1656842119348,"exampleIndex":-1},{"sectionIndex":1,"stepResults":[{"result":{"nanos":928400,"millis":0.9284,"status":"passed"},"step":{"background":true,"line":4,"prefix":"*","index":0,"text":"url baseURL"},"stepLog":"10:55:19.352 The value of env is :  null \n"},{"result":{"nanos":381000,"millis":0.381,"status":"passed"},"step":{"background":true,"line":5,"prefix":"*","index":1,"text":"headers Accept = 'application\/json'"},"stepLog":"10:55:19.354 did not evaluate to map Accept = 'application\/json': [type: STRING, value: application\/json]\n"},{"result":{"nanos":492700,"millis":0.4927,"status":"passed"},"step":{"line":11,"prefix":"Given","index":0,"text":"path '\/users?page=2'"}},{"result":{"nanos":1213181500,"millis":1213.1815,"status":"passed"},"step":{"line":12,"prefix":"When","index":1,"text":"method GET"},"stepLog":"10:55:20.253 request:\n1 > GET https:\/\/reqres.in\/api\/users%3Fpage=2\n1 > Host: reqres.in\n1 > Connection: Keep-Alive\n1 > User-Agent: Apache-HttpClient\/4.5.13 (Java\/1.8.0_121)\n1 > Accept-Encoding: gzip,deflate\n\n\n10:55:20.544 response time in milliseconds: 290\n1 < 200\n1 < Date: Sun, 03 Jul 2022 09:55:19 GMT\n1 < Content-Type: application\/json; charset=utf-8\n1 < Transfer-Encoding: chunked\n1 < Connection: keep-alive\n1 < X-Powered-By: Express\n1 < Access-Control-Allow-Origin: *\n1 < Etag: W\/\"2c1-N6Rqerxquq2kgQhL51EiSg4x0R8\"\n1 < Via: 1.1 vegur\n1 < Cache-Control: max-age=14400\n1 < CF-Cache-Status: HIT\n1 < Age: 6003\n1 < Expect-CT: max-age=604800, report-uri=\"https:\/\/report-uri.cloudflare.com\/cdn-cgi\/beacon\/expect-ct\"\n1 < Report-To: {\"endpoints\":[{\"url\":\"https:\\\/\\\/a.nel.cloudflare.com\\\/report\\\/v3?s=JLZS%2BX0q%2FQMEswpArHtl9cOVSQCFpgZvaC2vqPKAg%2BCZzxZ2Wcdnrk6g6D8rrCkzbpUgHsKaou9yK2xtVItwWpbmdxzbI6NPxG6NEPgvddUImVvhEqWedaw2xw%3D%3D\"}],\"group\":\"cf-nel\",\"max_age\":604800}\n1 < NEL: {\"success_fraction\":0,\"report_to\":\"cf-nel\",\"max_age\":604800}\n1 < Vary: Accept-Encoding\n1 < Server: cloudflare\n1 < CF-RAY: 724ebeae588676d7-LHR\n{\"page\":1,\"per_page\":6,\"total\":12,\"total_pages\":2,\"data\":[{\"id\":1,\"name\":\"cerulean\",\"year\":2000,\"color\":\"#98B2D1\",\"pantone_value\":\"15-4020\"},{\"id\":2,\"name\":\"fuchsia rose\",\"year\":2001,\"color\":\"#C74375\",\"pantone_value\":\"17-2031\"},{\"id\":3,\"name\":\"true red\",\"year\":2002,\"color\":\"#BF1932\",\"pantone_value\":\"19-1664\"},{\"id\":4,\"name\":\"aqua sky\",\"year\":2003,\"color\":\"#7BC4C4\",\"pantone_value\":\"14-4811\"},{\"id\":5,\"name\":\"tigerlily\",\"year\":2004,\"color\":\"#E2583E\",\"pantone_value\":\"17-1456\"},{\"id\":6,\"name\":\"blue turquoise\",\"year\":2005,\"color\":\"#53B0AE\",\"pantone_value\":\"15-5217\"}],\"support\":{\"url\":\"https:\/\/reqres.in\/#support-heading\",\"text\":\"To keep ReqRes free, contributions towards server costs are appreciated!\"}}\n\n"},{"result":{"nanos":10900,"millis":0.0109,"status":"passed"},"step":{"line":13,"prefix":"Then","index":2,"text":"status  200"}},{"result":{"nanos":4218000,"millis":4.218,"status":"passed"},"step":{"line":14,"prefix":"And","index":3,"text":"print response"},"stepLog":"10:55:20.573 [print] {\n  \"page\": 1,\n  \"per_page\": 6,\n  \"total\": 12,\n  \"total_pages\": 2,\n  \"data\": [\n    {\n      \"id\": 1,\n      \"name\": \"cerulean\",\n      \"year\": 2000,\n      \"color\": \"#98B2D1\",\n      \"pantone_value\": \"15-4020\"\n    },\n    {\n      \"id\": 2,\n      \"name\": \"fuchsia rose\",\n      \"year\": 2001,\n      \"color\": \"#C74375\",\n      \"pantone_value\": \"17-2031\"\n    },\n    {\n      \"id\": 3,\n      \"name\": \"true red\",\n      \"year\": 2002,\n      \"color\": \"#BF1932\",\n      \"pantone_value\": \"19-1664\"\n    },\n    {\n      \"id\": 4,\n      \"name\": \"aqua sky\",\n      \"year\": 2003,\n      \"color\": \"#7BC4C4\",\n      \"pantone_value\": \"14-4811\"\n    },\n    {\n      \"id\": 5,\n      \"name\": \"tigerlily\",\n      \"year\": 2004,\n      \"color\": \"#E2583E\",\n      \"pantone_value\": \"17-1456\"\n    },\n    {\n      \"id\": 6,\n      \"name\": \"blue turquoise\",\n      \"year\": 2005,\n      \"color\": \"#53B0AE\",\n      \"pantone_value\": \"15-5217\"\n    }\n  ],\n  \"support\": {\n    \"url\": \"https:\/\/reqres.in\/#support-heading\",\n    \"text\": \"To keep ReqRes free, contributions towards server costs are appreciated!\"\n  }\n}\n \n"}],"executorName":"main","line":10,"name":"Config demo 2","description":"","durationMillis":1219.2125,"startTime":1656842119352,"failed":false,"refId":"[2:10]","endTime":1656842120573,"exampleIndex":-1}],"callDepth":0,"name":"Config demo","description":"","resultDate":"2022-07-03 10:55:20 AM","durationMillis":1227.4075,"passedCount":2}