{"failedCount":0,"prefixedPath":"src\/test\/resources\/features\/GetApi.feature","packageQualifiedName":"src.test.resources.features.GetApi","loopIndex":-1,"relativePath":"src\/test\/resources\/features\/GetApi.feature","scenarioResults":[{"sectionIndex":0,"stepResults":[{"result":{"nanos":1598500,"millis":1.5985,"status":"passed"},"step":{"background":true,"line":4,"prefix":"*","index":0,"text":"url 'https:\/\/reqres.in\/api'"}},{"result":{"nanos":8614700,"millis":8.6147,"status":"passed"},"step":{"background":true,"line":5,"prefix":"*","index":1,"text":"headers Accept = 'application\/json'"},"stepLog":"11:28:11.821 did not evaluate to map Accept = 'application\/json': [type: STRING, value: application\/json]\n"},{"result":{"nanos":579601,"millis":0.579601,"status":"passed"},"step":{"line":8,"prefix":"Given","index":0,"text":"path '\/users?page=2'"}},{"result":{"nanos":1330229000,"millis":1330.229,"status":"passed"},"step":{"line":9,"prefix":"When","index":1,"text":"method GET"},"stepLog":"11:28:12.766 request:\n1 > GET https:\/\/reqres.in\/api\/users%3Fpage=2\n1 > Host: reqres.in\n1 > Connection: Keep-Alive\n1 > User-Agent: Apache-HttpClient\/4.5.13 (Java\/1.8.0_121)\n1 > Accept-Encoding: gzip,deflate\n\n\n11:28:13.126 response time in milliseconds: 358\n1 < 200\n1 < Date: Sun, 03 Jul 2022 10:28:12 GMT\n1 < Content-Type: application\/json; charset=utf-8\n1 < Transfer-Encoding: chunked\n1 < Connection: keep-alive\n1 < X-Powered-By: Express\n1 < Access-Control-Allow-Origin: *\n1 < Etag: W\/\"2c1-N6Rqerxquq2kgQhL51EiSg4x0R8\"\n1 < Via: 1.1 vegur\n1 < Cache-Control: max-age=14400\n1 < CF-Cache-Status: REVALIDATED\n1 < Expect-CT: max-age=604800, report-uri=\"https:\/\/report-uri.cloudflare.com\/cdn-cgi\/beacon\/expect-ct\"\n1 < Report-To: {\"endpoints\":[{\"url\":\"https:\\\/\\\/a.nel.cloudflare.com\\\/report\\\/v3?s=WnrpPNH%2B%2FGpql7vwK3mWph%2F8vrj24ZSBiYujFUc9z7bvzLAV%2BNsUj3oSF7uWp1hgEbfNuheeIXgwK0NzNnbrljzimxcOn%2FOAoUDFjCgyG0%2FT8yC%2BdfbbKHkHEA%3D%3D\"}],\"group\":\"cf-nel\",\"max_age\":604800}\n1 < NEL: {\"success_fraction\":0,\"report_to\":\"cf-nel\",\"max_age\":604800}\n1 < Vary: Accept-Encoding\n1 < Server: cloudflare\n1 < CF-RAY: 724eeed879428e15-LHR\n{\"page\":1,\"per_page\":6,\"total\":12,\"total_pages\":2,\"data\":[{\"id\":1,\"name\":\"cerulean\",\"year\":2000,\"color\":\"#98B2D1\",\"pantone_value\":\"15-4020\"},{\"id\":2,\"name\":\"fuchsia rose\",\"year\":2001,\"color\":\"#C74375\",\"pantone_value\":\"17-2031\"},{\"id\":3,\"name\":\"true red\",\"year\":2002,\"color\":\"#BF1932\",\"pantone_value\":\"19-1664\"},{\"id\":4,\"name\":\"aqua sky\",\"year\":2003,\"color\":\"#7BC4C4\",\"pantone_value\":\"14-4811\"},{\"id\":5,\"name\":\"tigerlily\",\"year\":2004,\"color\":\"#E2583E\",\"pantone_value\":\"17-1456\"},{\"id\":6,\"name\":\"blue turquoise\",\"year\":2005,\"color\":\"#53B0AE\",\"pantone_value\":\"15-5217\"}],\"support\":{\"url\":\"https:\/\/reqres.in\/#support-heading\",\"text\":\"To keep ReqRes free, contributions towards server costs are appreciated!\"}}\n\n"},{"result":{"nanos":13400,"millis":0.0134,"status":"passed"},"step":{"line":10,"prefix":"Then","index":2,"text":"status  200"}},{"result":{"nanos":39440601,"millis":39.440601,"status":"passed"},"step":{"line":11,"prefix":"And","index":3,"text":"print response"},"stepLog":"11:28:13.192 [print] {\n  \"page\": 1,\n  \"per_page\": 6,\n  \"total\": 12,\n  \"total_pages\": 2,\n  \"data\": [\n    {\n      \"id\": 1,\n      \"name\": \"cerulean\",\n      \"year\": 2000,\n      \"color\": \"#98B2D1\",\n      \"pantone_value\": \"15-4020\"\n    },\n    {\n      \"id\": 2,\n      \"name\": \"fuchsia rose\",\n      \"year\": 2001,\n      \"color\": \"#C74375\",\n      \"pantone_value\": \"17-2031\"\n    },\n    {\n      \"id\": 3,\n      \"name\": \"true red\",\n      \"year\": 2002,\n      \"color\": \"#BF1932\",\n      \"pantone_value\": \"19-1664\"\n    },\n    {\n      \"id\": 4,\n      \"name\": \"aqua sky\",\n      \"year\": 2003,\n      \"color\": \"#7BC4C4\",\n      \"pantone_value\": \"14-4811\"\n    },\n    {\n      \"id\": 5,\n      \"name\": \"tigerlily\",\n      \"year\": 2004,\n      \"color\": \"#E2583E\",\n      \"pantone_value\": \"17-1456\"\n    },\n    {\n      \"id\": 6,\n      \"name\": \"blue turquoise\",\n      \"year\": 2005,\n      \"color\": \"#53B0AE\",\n      \"pantone_value\": \"15-5217\"\n    }\n  ],\n  \"support\": {\n    \"url\": \"https:\/\/reqres.in\/#support-heading\",\n    \"text\": \"To keep ReqRes free, contributions towards server costs are appreciated!\"\n  }\n}\n \n"},{"result":{"nanos":1024600,"millis":1.0246,"status":"passed"},"step":{"line":12,"prefix":"And","index":4,"text":"print responseStatus"},"stepLog":"11:28:13.193 [print] 200 \n"},{"result":{"nanos":628700,"millis":0.6287,"status":"passed"},"step":{"line":13,"prefix":"And","index":5,"text":"print responseTime"},"stepLog":"11:28:13.194 [print] 358 \n"},{"result":{"nanos":643301,"millis":0.643301,"status":"passed"},"step":{"line":14,"prefix":"And","index":6,"text":"print responseHeaders"},"stepLog":"11:28:13.194 [print] {\n  \"Date\": [\n    \"Sun, 03 Jul 2022 10:28:12 GMT\"\n  ],\n  \"Content-Type\": [\n    \"application\/json; charset=utf-8\"\n  ],\n  \"Transfer-Encoding\": [\n    \"chunked\"\n  ],\n  \"Connection\": [\n    \"keep-alive\"\n  ],\n  \"X-Powered-By\": [\n    \"Express\"\n  ],\n  \"Access-Control-Allow-Origin\": [\n    \"*\"\n  ],\n  \"Etag\": [\n    \"W\/\\\"2c1-N6Rqerxquq2kgQhL51EiSg4x0R8\\\"\"\n  ],\n  \"Via\": [\n    \"1.1 vegur\"\n  ],\n  \"Cache-Control\": [\n    \"max-age=14400\"\n  ],\n  \"CF-Cache-Status\": [\n    \"REVALIDATED\"\n  ],\n  \"Expect-CT\": [\n    \"max-age=604800, report-uri=\\\"https:\/\/report-uri.cloudflare.com\/cdn-cgi\/beacon\/expect-ct\\\"\"\n  ],\n  \"Report-To\": [\n    \"{\\\"endpoints\\\":[{\\\"url\\\":\\\"https:\\\\\/\\\\\/a.nel.cloudflare.com\\\\\/report\\\\\/v3?s=WnrpPNH%2B%2FGpql7vwK3mWph%2F8vrj24ZSBiYujFUc9z7bvzLAV%2BNsUj3oSF7uWp1hgEbfNuheeIXgwK0NzNnbrljzimxcOn%2FOAoUDFjCgyG0%2FT8yC%2BdfbbKHkHEA%3D%3D\\\"}],\\\"group\\\":\\\"cf-nel\\\",\\\"max_age\\\":604800}\"\n  ],\n  \"NEL\": [\n    \"{\\\"success_fraction\\\":0,\\\"report_to\\\":\\\"cf-nel\\\",\\\"max_age\\\":604800}\"\n  ],\n  \"Vary\": [\n    \"Accept-Encoding\"\n  ],\n  \"Server\": [\n    \"cloudflare\"\n  ],\n  \"CF-RAY\": [\n    \"724eeed879428e15-LHR\"\n  ]\n}\n \n"},{"result":{"nanos":968299,"millis":0.968299,"status":"passed"},"step":{"line":15,"prefix":"And","index":7,"text":"print responseCookies"},"stepLog":"11:28:13.195 [print] null \n"}],"executorName":"main","line":7,"name":"Get Demo 1","description":"","durationMillis":1383.740702,"startTime":1656844091652,"failed":false,"refId":"[1:7]","endTime":1656844093196,"exampleIndex":-1},{"sectionIndex":1,"stepResults":[{"result":{"nanos":335901,"millis":0.335901,"status":"passed"},"step":{"background":true,"line":4,"prefix":"*","index":0,"text":"url 'https:\/\/reqres.in\/api'"}},{"result":{"nanos":446099,"millis":0.446099,"status":"passed"},"step":{"background":true,"line":5,"prefix":"*","index":1,"text":"headers Accept = 'application\/json'"},"stepLog":"11:28:13.203 did not evaluate to map Accept = 'application\/json': [type: STRING, value: application\/json]\n"},{"result":{"nanos":376000,"millis":0.376,"status":"passed"},"step":{"line":19,"prefix":"Given","index":0,"text":"path '\/users?'"}},{"result":{"nanos":1824101,"millis":1.824101,"status":"passed"},"step":{"line":20,"prefix":"And","index":1,"text":"param page = 2"}},{"result":{"nanos":197662201,"millis":197.662201,"status":"passed"},"step":{"line":21,"prefix":"When","index":2,"text":"method GET"},"stepLog":"11:28:13.207 request:\n1 > GET https:\/\/reqres.in\/api\/users%3F?page=2\n1 > Host: reqres.in\n1 > Connection: Keep-Alive\n1 > User-Agent: Apache-HttpClient\/4.5.13 (Java\/1.8.0_121)\n1 > Accept-Encoding: gzip,deflate\n\n\n11:28:13.402 response time in milliseconds: 194\n1 < 200\n1 < Date: Sun, 03 Jul 2022 10:28:12 GMT\n1 < Content-Type: application\/json; charset=utf-8\n1 < Transfer-Encoding: chunked\n1 < Connection: keep-alive\n1 < X-Powered-By: Express\n1 < Access-Control-Allow-Origin: *\n1 < Etag: W\/\"2c3-xEr0SjJUDYJR0qVFNJByQ5ZcdPc\"\n1 < Via: 1.1 vegur\n1 < Cache-Control: max-age=14400\n1 < CF-Cache-Status: HIT\n1 < Age: 6864\n1 < Expect-CT: max-age=604800, report-uri=\"https:\/\/report-uri.cloudflare.com\/cdn-cgi\/beacon\/expect-ct\"\n1 < Report-To: {\"endpoints\":[{\"url\":\"https:\\\/\\\/a.nel.cloudflare.com\\\/report\\\/v3?s=I%2BzePPbV12%2FRBGRIQzkknbA3ibF8zClN8yALxK7nmGv7vbgq1XPDsKJWQHpEq0bwHhWXCcGyG5KWSPEAtOI8pzqwCGfyRS9JB7lPs%2FANOqCT%2BDSZkcF%2F2wpXxA%3D%3D\"}],\"group\":\"cf-nel\",\"max_age\":604800}\n1 < NEL: {\"success_fraction\":0,\"report_to\":\"cf-nel\",\"max_age\":604800}\n1 < Vary: Accept-Encoding\n1 < Server: cloudflare\n1 < CF-RAY: 724eeeda5fbd7488-LHR\n{\"page\":2,\"per_page\":6,\"total\":12,\"total_pages\":2,\"data\":[{\"id\":7,\"name\":\"sand dollar\",\"year\":2006,\"color\":\"#DECDBE\",\"pantone_value\":\"13-1106\"},{\"id\":8,\"name\":\"chili pepper\",\"year\":2007,\"color\":\"#9B1B30\",\"pantone_value\":\"19-1557\"},{\"id\":9,\"name\":\"blue iris\",\"year\":2008,\"color\":\"#5A5B9F\",\"pantone_value\":\"18-3943\"},{\"id\":10,\"name\":\"mimosa\",\"year\":2009,\"color\":\"#F0C05A\",\"pantone_value\":\"14-0848\"},{\"id\":11,\"name\":\"turquoise\",\"year\":2010,\"color\":\"#45B5AA\",\"pantone_value\":\"15-5519\"},{\"id\":12,\"name\":\"honeysuckle\",\"year\":2011,\"color\":\"#D94F70\",\"pantone_value\":\"18-2120\"}],\"support\":{\"url\":\"https:\/\/reqres.in\/#support-heading\",\"text\":\"To keep ReqRes free, contributions towards server costs are appreciated!\"}}\n\n"},{"result":{"nanos":7000,"millis":0.007,"status":"passed"},"step":{"line":22,"prefix":"Then","index":3,"text":"status  200"}},{"result":{"nanos":557000,"millis":0.557,"status":"passed"},"step":{"line":23,"prefix":"And","index":4,"text":"print response"},"stepLog":"11:28:13.403 [print] {\n  \"page\": 2,\n  \"per_page\": 6,\n  \"total\": 12,\n  \"total_pages\": 2,\n  \"data\": [\n    {\n      \"id\": 7,\n      \"name\": \"sand dollar\",\n      \"year\": 2006,\n      \"color\": \"#DECDBE\",\n      \"pantone_value\": \"13-1106\"\n    },\n    {\n      \"id\": 8,\n      \"name\": \"chili pepper\",\n      \"year\": 2007,\n      \"color\": \"#9B1B30\",\n      \"pantone_value\": \"19-1557\"\n    },\n    {\n      \"id\": 9,\n      \"name\": \"blue iris\",\n      \"year\": 2008,\n      \"color\": \"#5A5B9F\",\n      \"pantone_value\": \"18-3943\"\n    },\n    {\n      \"id\": 10,\n      \"name\": \"mimosa\",\n      \"year\": 2009,\n      \"color\": \"#F0C05A\",\n      \"pantone_value\": \"14-0848\"\n    },\n    {\n      \"id\": 11,\n      \"name\": \"turquoise\",\n      \"year\": 2010,\n      \"color\": \"#45B5AA\",\n      \"pantone_value\": \"15-5519\"\n    },\n    {\n      \"id\": 12,\n      \"name\": \"honeysuckle\",\n      \"year\": 2011,\n      \"color\": \"#D94F70\",\n      \"pantone_value\": \"18-2120\"\n    }\n  ],\n  \"support\": {\n    \"url\": \"https:\/\/reqres.in\/#support-heading\",\n    \"text\": \"To keep ReqRes free, contributions towards server costs are appreciated!\"\n  }\n}\n \n"}],"executorName":"main","line":18,"name":"Get Demo 2","description":"","durationMillis":201.208302,"startTime":1656844093201,"failed":false,"refId":"[2:18]","endTime":1656844093403,"exampleIndex":-1},{"sectionIndex":2,"stepResults":[{"result":{"nanos":259701,"millis":0.259701,"status":"passed"},"step":{"background":true,"line":4,"prefix":"*","index":0,"text":"url 'https:\/\/reqres.in\/api'"}},{"result":{"nanos":435901,"millis":0.435901,"status":"passed"},"step":{"background":true,"line":5,"prefix":"*","index":1,"text":"headers Accept = 'application\/json'"},"stepLog":"11:28:13.410 did not evaluate to map Accept = 'application\/json': [type: STRING, value: application\/json]\n"},{"result":{"nanos":170599,"millis":0.170599,"status":"passed"},"step":{"line":27,"prefix":"Given","index":0,"text":"path '\/users?'"}},{"result":{"nanos":272700,"millis":0.2727,"status":"passed"},"step":{"line":28,"prefix":"And","index":1,"text":"param page = 2"}},{"result":{"nanos":257814701,"millis":257.814701,"status":"passed"},"step":{"line":29,"prefix":"When","index":2,"text":"method GET"},"stepLog":"11:28:13.413 request:\n1 > GET https:\/\/reqres.in\/api\/users%3F?page=2\n1 > Host: reqres.in\n1 > Connection: Keep-Alive\n1 > User-Agent: Apache-HttpClient\/4.5.13 (Java\/1.8.0_121)\n1 > Accept-Encoding: gzip,deflate\n\n\n11:28:13.668 response time in milliseconds: 255\n1 < 200\n1 < Date: Sun, 03 Jul 2022 10:28:12 GMT\n1 < Content-Type: application\/json; charset=utf-8\n1 < Transfer-Encoding: chunked\n1 < Connection: keep-alive\n1 < X-Powered-By: Express\n1 < Access-Control-Allow-Origin: *\n1 < Etag: W\/\"2c3-xEr0SjJUDYJR0qVFNJByQ5ZcdPc\"\n1 < Via: 1.1 vegur\n1 < Cache-Control: max-age=14400\n1 < CF-Cache-Status: REVALIDATED\n1 < Expect-CT: max-age=604800, report-uri=\"https:\/\/report-uri.cloudflare.com\/cdn-cgi\/beacon\/expect-ct\"\n1 < Report-To: {\"endpoints\":[{\"url\":\"https:\\\/\\\/a.nel.cloudflare.com\\\/report\\\/v3?s=fkuAeGKfOdMukDwUuTIBJqkxXANlLoKc7Hzhmgg5W5H4WSY23hCEY%2BUWgB89%2FdiH4nBR9EdHkIiDJG64GJjatReA88fck1kSr4mQwSH3OSLQ4IZAyoE5oHBUaQ%3D%3D\"}],\"group\":\"cf-nel\",\"max_age\":604800}\n1 < NEL: {\"success_fraction\":0,\"report_to\":\"cf-nel\",\"max_age\":604800}\n1 < Vary: Accept-Encoding\n1 < Server: cloudflare\n1 < CF-RAY: 724eeedbbb6a06e1-LHR\n{\"page\":2,\"per_page\":6,\"total\":12,\"total_pages\":2,\"data\":[{\"id\":7,\"name\":\"sand dollar\",\"year\":2006,\"color\":\"#DECDBE\",\"pantone_value\":\"13-1106\"},{\"id\":8,\"name\":\"chili pepper\",\"year\":2007,\"color\":\"#9B1B30\",\"pantone_value\":\"19-1557\"},{\"id\":9,\"name\":\"blue iris\",\"year\":2008,\"color\":\"#5A5B9F\",\"pantone_value\":\"18-3943\"},{\"id\":10,\"name\":\"mimosa\",\"year\":2009,\"color\":\"#F0C05A\",\"pantone_value\":\"14-0848\"},{\"id\":11,\"name\":\"turquoise\",\"year\":2010,\"color\":\"#45B5AA\",\"pantone_value\":\"15-5519\"},{\"id\":12,\"name\":\"honeysuckle\",\"year\":2011,\"color\":\"#D94F70\",\"pantone_value\":\"18-2120\"}],\"support\":{\"url\":\"https:\/\/reqres.in\/#support-heading\",\"text\":\"To keep ReqRes free, contributions towards server costs are appreciated!\"}}\n\n"},{"result":{"nanos":6700,"millis":0.0067,"status":"passed"},"step":{"line":30,"prefix":"Then","index":3,"text":"status  200"}},{"result":{"nanos":452700,"millis":0.4527,"status":"passed"},"step":{"line":31,"prefix":"And","index":4,"text":"print response"},"stepLog":"11:28:13.669 [print] {\n  \"page\": 2,\n  \"per_page\": 6,\n  \"total\": 12,\n  \"total_pages\": 2,\n  \"data\": [\n    {\n      \"id\": 7,\n      \"name\": \"sand dollar\",\n      \"year\": 2006,\n      \"color\": \"#DECDBE\",\n      \"pantone_value\": \"13-1106\"\n    },\n    {\n      \"id\": 8,\n      \"name\": \"chili pepper\",\n      \"year\": 2007,\n      \"color\": \"#9B1B30\",\n      \"pantone_value\": \"19-1557\"\n    },\n    {\n      \"id\": 9,\n      \"name\": \"blue iris\",\n      \"year\": 2008,\n      \"color\": \"#5A5B9F\",\n      \"pantone_value\": \"18-3943\"\n    },\n    {\n      \"id\": 10,\n      \"name\": \"mimosa\",\n      \"year\": 2009,\n      \"color\": \"#F0C05A\",\n      \"pantone_value\": \"14-0848\"\n    },\n    {\n      \"id\": 11,\n      \"name\": \"turquoise\",\n      \"year\": 2010,\n      \"color\": \"#45B5AA\",\n      \"pantone_value\": \"15-5519\"\n    },\n    {\n      \"id\": 12,\n      \"name\": \"honeysuckle\",\n      \"year\": 2011,\n      \"color\": \"#D94F70\",\n      \"pantone_value\": \"18-2120\"\n    }\n  ],\n  \"support\": {\n    \"url\": \"https:\/\/reqres.in\/#support-heading\",\n    \"text\": \"To keep ReqRes free, contributions towards server costs are appreciated!\"\n  }\n}\n \n"},{"result":{"nanos":42254801,"millis":42.254801,"status":"passed"},"step":{"line":32,"prefix":"And","index":5,"text":"match response.data[0].name != null"}},{"result":{"nanos":6649600,"millis":6.6496,"status":"passed"},"step":{"line":33,"prefix":"And","index":6,"text":"assert response.data.length == 6"}},{"result":{"nanos":965201,"millis":0.965201,"status":"passed"},"step":{"line":34,"prefix":"And","index":7,"text":"match response.data[3].id == 10"}},{"result":{"nanos":788199,"millis":0.788199,"status":"passed"},"step":{"line":35,"prefix":"And","index":8,"text":"match $.data[5].color == \"#D94F70\""}}],"executorName":"main","line":26,"name":"Get Demo 3","description":"","durationMillis":310.070803,"startTime":1656844093408,"failed":false,"refId":"[3:26]","endTime":1656844093720,"exampleIndex":-1}],"callDepth":0,"name":"Get API Demo","description":"","resultDate":"2022-07-03 11:28:13 AM","durationMillis":1895.019807,"passedCount":3}