{"failedCount":1,"prefixedPath":"src\/test\/resources\/features\/GetApi.feature","packageQualifiedName":"src.test.resources.features.GetApi","loopIndex":-1,"relativePath":"src\/test\/resources\/features\/GetApi.feature","scenarioResults":[{"sectionIndex":2,"stepResults":[{"result":{"nanos":91743100,"millis":91.7431,"status":"passed"},"step":{"background":true,"line":4,"prefix":"*","index":0,"text":"url 'https:\/\/reqres.in\/api'"}},{"result":{"nanos":11694100,"millis":11.6941,"status":"passed"},"step":{"background":true,"line":5,"prefix":"*","index":1,"text":"headers Accept = 'application\/json'"},"stepLog":"09:33:47.832 did not evaluate to map Accept = 'application\/json': [type: STRING, value: application\/json]\n"},{"result":{"nanos":435800,"millis":0.4358,"status":"passed"},"step":{"line":27,"prefix":"Given","index":0,"text":"path '\/users?'"}},{"result":{"nanos":2826200,"millis":2.8262,"status":"passed"},"step":{"line":28,"prefix":"And","index":1,"text":"param page = 2"}},{"result":{"nanos":1377009400,"millis":1377.0094,"status":"passed"},"step":{"line":29,"prefix":"When","index":2,"text":"method GET"},"stepLog":"09:33:48.796 request:\n1 > GET https:\/\/reqres.in\/api\/users%3F?page=2\n1 > Host: reqres.in\n1 > Connection: Keep-Alive\n1 > User-Agent: Apache-HttpClient\/4.5.13 (Java\/1.8.0_121)\n1 > Accept-Encoding: gzip,deflate\n\n\n09:33:49.187 response time in milliseconds: 389\n1 < 200\n1 < Date: Sun, 03 Jul 2022 08:33:48 GMT\n1 < Content-Type: application\/json; charset=utf-8\n1 < Transfer-Encoding: chunked\n1 < Connection: keep-alive\n1 < X-Powered-By: Express\n1 < Access-Control-Allow-Origin: *\n1 < Etag: W\/\"2c3-xEr0SjJUDYJR0qVFNJByQ5ZcdPc\"\n1 < Via: 1.1 vegur\n1 < Cache-Control: max-age=14400\n1 < CF-Cache-Status: MISS\n1 < Expect-CT: max-age=604800, report-uri=\"https:\/\/report-uri.cloudflare.com\/cdn-cgi\/beacon\/expect-ct\"\n1 < Report-To: {\"endpoints\":[{\"url\":\"https:\\\/\\\/a.nel.cloudflare.com\\\/report\\\/v3?s=AAR1vh%2F934Y1Fi513JTARt3bNhfTwByX3IdZQF%2BqxKoAxRV4ianihiKll916kUAaOOEg6uXmKfL7KZ5A%2F7u0dQEyYQIjcqaRqES6NztDeXIYsON2khXPWOBpXw%3D%3D\"}],\"group\":\"cf-nel\",\"max_age\":604800}\n1 < NEL: {\"success_fraction\":0,\"report_to\":\"cf-nel\",\"max_age\":604800}\n1 < Vary: Accept-Encoding\n1 < Server: cloudflare\n1 < CF-RAY: 724e47431e0d7545-LHR\n{\"page\":2,\"per_page\":6,\"total\":12,\"total_pages\":2,\"data\":[{\"id\":7,\"name\":\"sand dollar\",\"year\":2006,\"color\":\"#DECDBE\",\"pantone_value\":\"13-1106\"},{\"id\":8,\"name\":\"chili pepper\",\"year\":2007,\"color\":\"#9B1B30\",\"pantone_value\":\"19-1557\"},{\"id\":9,\"name\":\"blue iris\",\"year\":2008,\"color\":\"#5A5B9F\",\"pantone_value\":\"18-3943\"},{\"id\":10,\"name\":\"mimosa\",\"year\":2009,\"color\":\"#F0C05A\",\"pantone_value\":\"14-0848\"},{\"id\":11,\"name\":\"turquoise\",\"year\":2010,\"color\":\"#45B5AA\",\"pantone_value\":\"15-5519\"},{\"id\":12,\"name\":\"honeysuckle\",\"year\":2011,\"color\":\"#D94F70\",\"pantone_value\":\"18-2120\"}],\"support\":{\"url\":\"https:\/\/reqres.in\/#support-heading\",\"text\":\"To keep ReqRes free, contributions towards server costs are appreciated!\"}}\n\n"},{"result":{"nanos":12700,"millis":0.0127,"status":"passed"},"step":{"line":30,"prefix":"Then","index":3,"text":"status  200"}},{"result":{"nanos":66213100,"millis":66.2131,"status":"passed"},"step":{"line":31,"prefix":"And","index":4,"text":"print response"},"stepLog":"09:33:49.279 [print] {\n  \"page\": 2,\n  \"per_page\": 6,\n  \"total\": 12,\n  \"total_pages\": 2,\n  \"data\": [\n    {\n      \"id\": 7,\n      \"name\": \"sand dollar\",\n      \"year\": 2006,\n      \"color\": \"#DECDBE\",\n      \"pantone_value\": \"13-1106\"\n    },\n    {\n      \"id\": 8,\n      \"name\": \"chili pepper\",\n      \"year\": 2007,\n      \"color\": \"#9B1B30\",\n      \"pantone_value\": \"19-1557\"\n    },\n    {\n      \"id\": 9,\n      \"name\": \"blue iris\",\n      \"year\": 2008,\n      \"color\": \"#5A5B9F\",\n      \"pantone_value\": \"18-3943\"\n    },\n    {\n      \"id\": 10,\n      \"name\": \"mimosa\",\n      \"year\": 2009,\n      \"color\": \"#F0C05A\",\n      \"pantone_value\": \"14-0848\"\n    },\n    {\n      \"id\": 11,\n      \"name\": \"turquoise\",\n      \"year\": 2010,\n      \"color\": \"#45B5AA\",\n      \"pantone_value\": \"15-5519\"\n    },\n    {\n      \"id\": 12,\n      \"name\": \"honeysuckle\",\n      \"year\": 2011,\n      \"color\": \"#D94F70\",\n      \"pantone_value\": \"18-2120\"\n    }\n  ],\n  \"support\": {\n    \"url\": \"https:\/\/reqres.in\/#support-heading\",\n    \"text\": \"To keep ReqRes free, contributions towards server costs are appreciated!\"\n  }\n}\n \n"},{"result":{"nanos":38005300,"millis":38.0053,"status":"passed"},"step":{"line":32,"prefix":"And","index":5,"text":"match response.data[0].name != null"}},{"result":{"nanos":11841400,"millis":11.8414,"status":"passed"},"step":{"line":33,"prefix":"And","index":6,"text":"assert response.data.length == 6"}},{"result":{"nanos":2641600,"errorMessage":"match failed: EQUALS\n  $ | data types don't match (MAP:NUMBER)\n  {\"id\":7,\"name\":\"sand dollar\",\"year\":2006,\"color\":\"#DECDBE\",\"pantone_value\":\"13-1106\"}\n  10\n\nsrc\/test\/resources\/features\/GetApi.feature:34","millis":2.6416,"status":"failed"},"step":{"line":34,"prefix":"And","index":7,"text":"match response.data[0] == 10"},"stepLog":"09:33:49.333 src\/test\/resources\/features\/GetApi.feature:34\nAnd match response.data[0] == 10\nmatch failed: EQUALS\n  $ | data types don't match (MAP:NUMBER)\n  {\"id\":7,\"name\":\"sand dollar\",\"year\":2006,\"color\":\"#DECDBE\",\"pantone_value\":\"13-1106\"}\n  10\n\nsrc\/test\/resources\/features\/GetApi.feature:34\n"}],"line":26,"description":"","durationMillis":1602.4227,"failed":true,"error":"match failed: EQUALS\n  $ | data types don't match (MAP:NUMBER)\n  {\"id\":7,\"name\":\"sand dollar\",\"year\":2006,\"color\":\"#DECDBE\",\"pantone_value\":\"13-1106\"}\n  10\n\nsrc\/test\/resources\/features\/GetApi.feature:34","executorName":"main","name":"Get Demo 3","startTime":1656837227717,"refId":"[3:26]","endTime":1656837229333,"exampleIndex":-1}],"callDepth":0,"name":"Get API Demo","description":"","resultDate":"2022-07-03 09:33:49 AM","durationMillis":1602.4227,"passedCount":0}