{"failedCount":1,"prefixedPath":"src\/test\/resources\/features\/GetApi.feature","packageQualifiedName":"src.test.resources.features.GetApi","loopIndex":-1,"relativePath":"src\/test\/resources\/features\/GetApi.feature","scenarioResults":[{"sectionIndex":0,"stepResults":[{"result":{"nanos":74560700,"millis":74.5607,"status":"passed"},"step":{"background":true,"line":4,"prefix":"*","index":0,"text":"url 'https:\/\/reqres.in\/api'"}},{"result":{"nanos":9236800,"millis":9.2368,"status":"passed"},"step":{"background":true,"line":5,"prefix":"*","index":1,"text":"headers Accept = 'application\/json'"},"stepLog":"09:34:43.290 did not evaluate to map Accept = 'application\/json': [type: STRING, value: application\/json]\n"},{"result":{"nanos":540400,"millis":0.5404,"status":"passed"},"step":{"line":8,"prefix":"Given","index":0,"text":"path '\/users?page=2'"}},{"result":{"nanos":1138225200,"millis":1138.2252,"status":"passed"},"step":{"line":9,"prefix":"When","index":1,"text":"method GET"},"stepLog":"09:34:44.116 request:\n1 > GET https:\/\/reqres.in\/api\/users%3Fpage=2\n1 > Host: reqres.in\n1 > Connection: Keep-Alive\n1 > User-Agent: Apache-HttpClient\/4.5.13 (Java\/1.8.0_121)\n1 > Accept-Encoding: gzip,deflate\n\n\n09:34:44.399 response time in milliseconds: 281\n1 < 200\n1 < Date: Sun, 03 Jul 2022 08:34:43 GMT\n1 < Content-Type: application\/json; charset=utf-8\n1 < Transfer-Encoding: chunked\n1 < Connection: keep-alive\n1 < X-Powered-By: Express\n1 < Access-Control-Allow-Origin: *\n1 < Etag: W\/\"2c1-N6Rqerxquq2kgQhL51EiSg4x0R8\"\n1 < Via: 1.1 vegur\n1 < Cache-Control: max-age=14400\n1 < CF-Cache-Status: HIT\n1 < Age: 1167\n1 < Expect-CT: max-age=604800, report-uri=\"https:\/\/report-uri.cloudflare.com\/cdn-cgi\/beacon\/expect-ct\"\n1 < Report-To: {\"endpoints\":[{\"url\":\"https:\\\/\\\/a.nel.cloudflare.com\\\/report\\\/v3?s=PKNd51wf5QH13WfdxycU9oQMyDDR2J8pmWFQk2Hk2eIkLLfJK8OI27ODrcsCrkZSnSxL%2FaxEzDJruXQUt%2BjgwennqUlWl3PHWun04z%2BSMpfShLCyQQhuIbOLuQ%3D%3D\"}],\"group\":\"cf-nel\",\"max_age\":604800}\n1 < NEL: {\"success_fraction\":0,\"report_to\":\"cf-nel\",\"max_age\":604800}\n1 < Vary: Accept-Encoding\n1 < Server: cloudflare\n1 < CF-RAY: 724e489c6e8e776e-LHR\n{\"page\":1,\"per_page\":6,\"total\":12,\"total_pages\":2,\"data\":[{\"id\":1,\"name\":\"cerulean\",\"year\":2000,\"color\":\"#98B2D1\",\"pantone_value\":\"15-4020\"},{\"id\":2,\"name\":\"fuchsia rose\",\"year\":2001,\"color\":\"#C74375\",\"pantone_value\":\"17-2031\"},{\"id\":3,\"name\":\"true red\",\"year\":2002,\"color\":\"#BF1932\",\"pantone_value\":\"19-1664\"},{\"id\":4,\"name\":\"aqua sky\",\"year\":2003,\"color\":\"#7BC4C4\",\"pantone_value\":\"14-4811\"},{\"id\":5,\"name\":\"tigerlily\",\"year\":2004,\"color\":\"#E2583E\",\"pantone_value\":\"17-1456\"},{\"id\":6,\"name\":\"blue turquoise\",\"year\":2005,\"color\":\"#53B0AE\",\"pantone_value\":\"15-5217\"}],\"support\":{\"url\":\"https:\/\/reqres.in\/#support-heading\",\"text\":\"To keep ReqRes free, contributions towards server costs are appreciated!\"}}\n\n"},{"result":{"nanos":13800,"millis":0.0138,"status":"passed"},"step":{"line":10,"prefix":"Then","index":2,"text":"status  200"}},{"result":{"nanos":50311800,"millis":50.3118,"status":"passed"},"step":{"line":11,"prefix":"And","index":3,"text":"print response"},"stepLog":"09:34:44.478 [print] {\n  \"page\": 1,\n  \"per_page\": 6,\n  \"total\": 12,\n  \"total_pages\": 2,\n  \"data\": [\n    {\n      \"id\": 1,\n      \"name\": \"cerulean\",\n      \"year\": 2000,\n      \"color\": \"#98B2D1\",\n      \"pantone_value\": \"15-4020\"\n    },\n    {\n      \"id\": 2,\n      \"name\": \"fuchsia rose\",\n      \"year\": 2001,\n      \"color\": \"#C74375\",\n      \"pantone_value\": \"17-2031\"\n    },\n    {\n      \"id\": 3,\n      \"name\": \"true red\",\n      \"year\": 2002,\n      \"color\": \"#BF1932\",\n      \"pantone_value\": \"19-1664\"\n    },\n    {\n      \"id\": 4,\n      \"name\": \"aqua sky\",\n      \"year\": 2003,\n      \"color\": \"#7BC4C4\",\n      \"pantone_value\": \"14-4811\"\n    },\n    {\n      \"id\": 5,\n      \"name\": \"tigerlily\",\n      \"year\": 2004,\n      \"color\": \"#E2583E\",\n      \"pantone_value\": \"17-1456\"\n    },\n    {\n      \"id\": 6,\n      \"name\": \"blue turquoise\",\n      \"year\": 2005,\n      \"color\": \"#53B0AE\",\n      \"pantone_value\": \"15-5217\"\n    }\n  ],\n  \"support\": {\n    \"url\": \"https:\/\/reqres.in\/#support-heading\",\n    \"text\": \"To keep ReqRes free, contributions towards server costs are appreciated!\"\n  }\n}\n \n"},{"result":{"nanos":891400,"millis":0.8914,"status":"passed"},"step":{"line":12,"prefix":"And","index":4,"text":"print responseStatus"},"stepLog":"09:34:44.480 [print] 200 \n"},{"result":{"nanos":538800,"millis":0.5388,"status":"passed"},"step":{"line":13,"prefix":"And","index":5,"text":"print responseTime"},"stepLog":"09:34:44.480 [print] 281 \n"},{"result":{"nanos":622800,"millis":0.6228,"status":"passed"},"step":{"line":14,"prefix":"And","index":6,"text":"print responseHeaders"},"stepLog":"09:34:44.481 [print] {\n  \"Date\": [\n    \"Sun, 03 Jul 2022 08:34:43 GMT\"\n  ],\n  \"Content-Type\": [\n    \"application\/json; charset=utf-8\"\n  ],\n  \"Transfer-Encoding\": [\n    \"chunked\"\n  ],\n  \"Connection\": [\n    \"keep-alive\"\n  ],\n  \"X-Powered-By\": [\n    \"Express\"\n  ],\n  \"Access-Control-Allow-Origin\": [\n    \"*\"\n  ],\n  \"Etag\": [\n    \"W\/\\\"2c1-N6Rqerxquq2kgQhL51EiSg4x0R8\\\"\"\n  ],\n  \"Via\": [\n    \"1.1 vegur\"\n  ],\n  \"Cache-Control\": [\n    \"max-age=14400\"\n  ],\n  \"CF-Cache-Status\": [\n    \"HIT\"\n  ],\n  \"Age\": [\n    \"1167\"\n  ],\n  \"Expect-CT\": [\n    \"max-age=604800, report-uri=\\\"https:\/\/report-uri.cloudflare.com\/cdn-cgi\/beacon\/expect-ct\\\"\"\n  ],\n  \"Report-To\": [\n    \"{\\\"endpoints\\\":[{\\\"url\\\":\\\"https:\\\\\/\\\\\/a.nel.cloudflare.com\\\\\/report\\\\\/v3?s=PKNd51wf5QH13WfdxycU9oQMyDDR2J8pmWFQk2Hk2eIkLLfJK8OI27ODrcsCrkZSnSxL%2FaxEzDJruXQUt%2BjgwennqUlWl3PHWun04z%2BSMpfShLCyQQhuIbOLuQ%3D%3D\\\"}],\\\"group\\\":\\\"cf-nel\\\",\\\"max_age\\\":604800}\"\n  ],\n  \"NEL\": [\n    \"{\\\"success_fraction\\\":0,\\\"report_to\\\":\\\"cf-nel\\\",\\\"max_age\\\":604800}\"\n  ],\n  \"Vary\": [\n    \"Accept-Encoding\"\n  ],\n  \"Server\": [\n    \"cloudflare\"\n  ],\n  \"CF-RAY\": [\n    \"724e489c6e8e776e-LHR\"\n  ]\n}\n \n"},{"result":{"nanos":687200,"millis":0.6872,"status":"passed"},"step":{"line":15,"prefix":"And","index":7,"text":"print responseCookies"},"stepLog":"09:34:44.482 [print] null \n"}],"executorName":"main","line":7,"name":"Get Demo 1","description":"","durationMillis":1275.6289,"startTime":1656837283195,"failed":false,"refId":"[1:7]","endTime":1656837284482,"exampleIndex":-1},{"sectionIndex":1,"stepResults":[{"result":{"nanos":807600,"millis":0.8076,"status":"passed"},"step":{"background":true,"line":4,"prefix":"*","index":0,"text":"url 'https:\/\/reqres.in\/api'"}},{"result":{"nanos":862300,"millis":0.8623,"status":"passed"},"step":{"background":true,"line":5,"prefix":"*","index":1,"text":"headers Accept = 'application\/json'"},"stepLog":"09:34:44.489 did not evaluate to map Accept = 'application\/json': [type: STRING, value: application\/json]\n"},{"result":{"nanos":621300,"millis":0.6213,"status":"passed"},"step":{"line":19,"prefix":"Given","index":0,"text":"path '\/users?'"}},{"result":{"nanos":2274500,"millis":2.2745,"status":"passed"},"step":{"line":20,"prefix":"And","index":1,"text":"param page = 2"}},{"result":{"nanos":131480800,"millis":131.4808,"status":"passed"},"step":{"line":21,"prefix":"When","index":2,"text":"method GET"},"stepLog":"09:34:44.494 request:\n1 > GET https:\/\/reqres.in\/api\/users%3F?page=2\n1 > Host: reqres.in\n1 > Connection: Keep-Alive\n1 > User-Agent: Apache-HttpClient\/4.5.13 (Java\/1.8.0_121)\n1 > Accept-Encoding: gzip,deflate\n\n\n09:34:44.623 response time in milliseconds: 129\n1 < 200\n1 < Date: Sun, 03 Jul 2022 08:34:43 GMT\n1 < Content-Type: application\/json; charset=utf-8\n1 < Transfer-Encoding: chunked\n1 < Connection: keep-alive\n1 < X-Powered-By: Express\n1 < Access-Control-Allow-Origin: *\n1 < Etag: W\/\"2c3-xEr0SjJUDYJR0qVFNJByQ5ZcdPc\"\n1 < Via: 1.1 vegur\n1 < Cache-Control: max-age=14400\n1 < CF-Cache-Status: HIT\n1 < Age: 12\n1 < Expect-CT: max-age=604800, report-uri=\"https:\/\/report-uri.cloudflare.com\/cdn-cgi\/beacon\/expect-ct\"\n1 < Report-To: {\"endpoints\":[{\"url\":\"https:\\\/\\\/a.nel.cloudflare.com\\\/report\\\/v3?s=gtu2yaS4Yh7sEOvC%2F%2B5OJMAMViwRSRp%2B6iI5A5FGpSZaZT9TGPLEE14gNYTEPGuu9VGBWFF8fkYMLOmQV1WAkFenEFqqEy4AgflHTvgk5OUPa4x%2BsOGAVoWRqQ%3D%3D\"}],\"group\":\"cf-nel\",\"max_age\":604800}\n1 < NEL: {\"success_fraction\":0,\"report_to\":\"cf-nel\",\"max_age\":604800}\n1 < Vary: Accept-Encoding\n1 < Server: cloudflare\n1 < CF-RAY: 724e489df99176ea-LHR\n{\"page\":2,\"per_page\":6,\"total\":12,\"total_pages\":2,\"data\":[{\"id\":7,\"name\":\"sand dollar\",\"year\":2006,\"color\":\"#DECDBE\",\"pantone_value\":\"13-1106\"},{\"id\":8,\"name\":\"chili pepper\",\"year\":2007,\"color\":\"#9B1B30\",\"pantone_value\":\"19-1557\"},{\"id\":9,\"name\":\"blue iris\",\"year\":2008,\"color\":\"#5A5B9F\",\"pantone_value\":\"18-3943\"},{\"id\":10,\"name\":\"mimosa\",\"year\":2009,\"color\":\"#F0C05A\",\"pantone_value\":\"14-0848\"},{\"id\":11,\"name\":\"turquoise\",\"year\":2010,\"color\":\"#45B5AA\",\"pantone_value\":\"15-5519\"},{\"id\":12,\"name\":\"honeysuckle\",\"year\":2011,\"color\":\"#D94F70\",\"pantone_value\":\"18-2120\"}],\"support\":{\"url\":\"https:\/\/reqres.in\/#support-heading\",\"text\":\"To keep ReqRes free, contributions towards server costs are appreciated!\"}}\n\n"},{"result":{"nanos":6900,"millis":0.0069,"status":"passed"},"step":{"line":22,"prefix":"Then","index":3,"text":"status  200"}},{"result":{"nanos":557100,"millis":0.5571,"status":"passed"},"step":{"line":23,"prefix":"And","index":4,"text":"print response"},"stepLog":"09:34:44.624 [print] {\n  \"page\": 2,\n  \"per_page\": 6,\n  \"total\": 12,\n  \"total_pages\": 2,\n  \"data\": [\n    {\n      \"id\": 7,\n      \"name\": \"sand dollar\",\n      \"year\": 2006,\n      \"color\": \"#DECDBE\",\n      \"pantone_value\": \"13-1106\"\n    },\n    {\n      \"id\": 8,\n      \"name\": \"chili pepper\",\n      \"year\": 2007,\n      \"color\": \"#9B1B30\",\n      \"pantone_value\": \"19-1557\"\n    },\n    {\n      \"id\": 9,\n      \"name\": \"blue iris\",\n      \"year\": 2008,\n      \"color\": \"#5A5B9F\",\n      \"pantone_value\": \"18-3943\"\n    },\n    {\n      \"id\": 10,\n      \"name\": \"mimosa\",\n      \"year\": 2009,\n      \"color\": \"#F0C05A\",\n      \"pantone_value\": \"14-0848\"\n    },\n    {\n      \"id\": 11,\n      \"name\": \"turquoise\",\n      \"year\": 2010,\n      \"color\": \"#45B5AA\",\n      \"pantone_value\": \"15-5519\"\n    },\n    {\n      \"id\": 12,\n      \"name\": \"honeysuckle\",\n      \"year\": 2011,\n      \"color\": \"#D94F70\",\n      \"pantone_value\": \"18-2120\"\n    }\n  ],\n  \"support\": {\n    \"url\": \"https:\/\/reqres.in\/#support-heading\",\n    \"text\": \"To keep ReqRes free, contributions towards server costs are appreciated!\"\n  }\n}\n \n"}],"executorName":"main","line":18,"name":"Get Demo 2","description":"","durationMillis":136.6105,"startTime":1656837284487,"failed":false,"refId":"[2:18]","endTime":1656837284624,"exampleIndex":-1},{"sectionIndex":2,"stepResults":[{"result":{"nanos":272800,"millis":0.2728,"status":"passed"},"step":{"background":true,"line":4,"prefix":"*","index":0,"text":"url 'https:\/\/reqres.in\/api'"}},{"result":{"nanos":343000,"millis":0.343,"status":"passed"},"step":{"background":true,"line":5,"prefix":"*","index":1,"text":"headers Accept = 'application\/json'"},"stepLog":"09:34:44.630 did not evaluate to map Accept = 'application\/json': [type: STRING, value: application\/json]\n"},{"result":{"nanos":101200,"millis":0.1012,"status":"passed"},"step":{"line":27,"prefix":"Given","index":0,"text":"path '\/users?'"}},{"result":{"nanos":133500,"millis":0.1335,"status":"passed"},"step":{"line":28,"prefix":"And","index":1,"text":"param page = 2"}},{"result":{"nanos":140423100,"millis":140.4231,"status":"passed"},"step":{"line":29,"prefix":"When","index":2,"text":"method GET"},"stepLog":"09:34:44.632 request:\n1 > GET https:\/\/reqres.in\/api\/users%3F?page=2\n1 > Host: reqres.in\n1 > Connection: Keep-Alive\n1 > User-Agent: Apache-HttpClient\/4.5.13 (Java\/1.8.0_121)\n1 > Accept-Encoding: gzip,deflate\n\n\n09:34:44.770 response time in milliseconds: 138\n1 < 200\n1 < Date: Sun, 03 Jul 2022 08:34:43 GMT\n1 < Content-Type: application\/json; charset=utf-8\n1 < Transfer-Encoding: chunked\n1 < Connection: keep-alive\n1 < X-Powered-By: Express\n1 < Access-Control-Allow-Origin: *\n1 < Etag: W\/\"2c3-xEr0SjJUDYJR0qVFNJByQ5ZcdPc\"\n1 < Via: 1.1 vegur\n1 < Cache-Control: max-age=14400\n1 < CF-Cache-Status: HIT\n1 < Age: 12\n1 < Expect-CT: max-age=604800, report-uri=\"https:\/\/report-uri.cloudflare.com\/cdn-cgi\/beacon\/expect-ct\"\n1 < Report-To: {\"endpoints\":[{\"url\":\"https:\\\/\\\/a.nel.cloudflare.com\\\/report\\\/v3?s=cChlaaT742pG%2FGC5qFWpOdRi5oGmVweB0nhlI8emf9b5Xbb8Dn56QbijxHGUOqAbxi5KLEjf%2B1RrbpYl4NQpmRlXT%2BMBnjgz4%2Fb3m5wl2RCEA7zmeNgxrc696g%3D%3D\"}],\"group\":\"cf-nel\",\"max_age\":604800}\n1 < NEL: {\"success_fraction\":0,\"report_to\":\"cf-nel\",\"max_age\":604800}\n1 < Vary: Accept-Encoding\n1 < Server: cloudflare\n1 < CF-RAY: 724e489ecf3f8926-LHR\n{\"page\":2,\"per_page\":6,\"total\":12,\"total_pages\":2,\"data\":[{\"id\":7,\"name\":\"sand dollar\",\"year\":2006,\"color\":\"#DECDBE\",\"pantone_value\":\"13-1106\"},{\"id\":8,\"name\":\"chili pepper\",\"year\":2007,\"color\":\"#9B1B30\",\"pantone_value\":\"19-1557\"},{\"id\":9,\"name\":\"blue iris\",\"year\":2008,\"color\":\"#5A5B9F\",\"pantone_value\":\"18-3943\"},{\"id\":10,\"name\":\"mimosa\",\"year\":2009,\"color\":\"#F0C05A\",\"pantone_value\":\"14-0848\"},{\"id\":11,\"name\":\"turquoise\",\"year\":2010,\"color\":\"#45B5AA\",\"pantone_value\":\"15-5519\"},{\"id\":12,\"name\":\"honeysuckle\",\"year\":2011,\"color\":\"#D94F70\",\"pantone_value\":\"18-2120\"}],\"support\":{\"url\":\"https:\/\/reqres.in\/#support-heading\",\"text\":\"To keep ReqRes free, contributions towards server costs are appreciated!\"}}\n\n"},{"result":{"nanos":9900,"millis":0.0099,"status":"passed"},"step":{"line":30,"prefix":"Then","index":3,"text":"status  200"}},{"result":{"nanos":697100,"millis":0.6971,"status":"passed"},"step":{"line":31,"prefix":"And","index":4,"text":"print response"},"stepLog":"09:34:44.771 [print] {\n  \"page\": 2,\n  \"per_page\": 6,\n  \"total\": 12,\n  \"total_pages\": 2,\n  \"data\": [\n    {\n      \"id\": 7,\n      \"name\": \"sand dollar\",\n      \"year\": 2006,\n      \"color\": \"#DECDBE\",\n      \"pantone_value\": \"13-1106\"\n    },\n    {\n      \"id\": 8,\n      \"name\": \"chili pepper\",\n      \"year\": 2007,\n      \"color\": \"#9B1B30\",\n      \"pantone_value\": \"19-1557\"\n    },\n    {\n      \"id\": 9,\n      \"name\": \"blue iris\",\n      \"year\": 2008,\n      \"color\": \"#5A5B9F\",\n      \"pantone_value\": \"18-3943\"\n    },\n    {\n      \"id\": 10,\n      \"name\": \"mimosa\",\n      \"year\": 2009,\n      \"color\": \"#F0C05A\",\n      \"pantone_value\": \"14-0848\"\n    },\n    {\n      \"id\": 11,\n      \"name\": \"turquoise\",\n      \"year\": 2010,\n      \"color\": \"#45B5AA\",\n      \"pantone_value\": \"15-5519\"\n    },\n    {\n      \"id\": 12,\n      \"name\": \"honeysuckle\",\n      \"year\": 2011,\n      \"color\": \"#D94F70\",\n      \"pantone_value\": \"18-2120\"\n    }\n  ],\n  \"support\": {\n    \"url\": \"https:\/\/reqres.in\/#support-heading\",\n    \"text\": \"To keep ReqRes free, contributions towards server costs are appreciated!\"\n  }\n}\n \n"},{"result":{"nanos":27132500,"millis":27.1325,"status":"passed"},"step":{"line":32,"prefix":"And","index":5,"text":"match response.data[0].name != null"}},{"result":{"nanos":6639200,"millis":6.6392,"status":"passed"},"step":{"line":33,"prefix":"And","index":6,"text":"assert response.data.length == 6"}},{"result":{"nanos":1415600,"errorMessage":"match failed: EQUALS\n  $ | not equal (NUMBER:NUMBER)\n  10\n  4\n\nsrc\/test\/resources\/features\/GetApi.feature:34","millis":1.4156,"status":"failed"},"step":{"line":34,"prefix":"And","index":7,"text":"match response.data[3].id == 4"},"stepLog":"09:34:44.807 src\/test\/resources\/features\/GetApi.feature:34\nAnd match response.data[3].id == 4\nmatch failed: EQUALS\n  $ | not equal (NUMBER:NUMBER)\n  10\n  4\n\nsrc\/test\/resources\/features\/GetApi.feature:34\n"}],"line":26,"description":"","durationMillis":177.1679,"failed":true,"error":"match failed: EQUALS\n  $ | not equal (NUMBER:NUMBER)\n  10\n  4\n\nsrc\/test\/resources\/features\/GetApi.feature:34","executorName":"main","name":"Get Demo 3","startTime":1656837284629,"refId":"[3:26]","endTime":1656837284807,"exampleIndex":-1}],"callDepth":0,"name":"Get API Demo","description":"","resultDate":"2022-07-03 09:34:44 AM","durationMillis":1589.4073,"passedCount":2}