{"failedCount":0,"prefixedPath":"src\/test\/resources\/features\/GetApi.feature","packageQualifiedName":"src.test.resources.features.GetApi","loopIndex":-1,"relativePath":"src\/test\/resources\/features\/GetApi.feature","scenarioResults":[{"sectionIndex":0,"stepResults":[{"result":{"nanos":73813400,"millis":73.8134,"status":"passed"},"step":{"background":true,"line":4,"prefix":"*","index":0,"text":"url 'https:\/\/reqres.in\/api'"}},{"result":{"nanos":7998800,"millis":7.9988,"status":"passed"},"step":{"background":true,"line":5,"prefix":"*","index":1,"text":"headers Accept = 'application\/json'"},"stepLog":"09:12:30.640 did not evaluate to map Accept = 'application\/json': [type: STRING, value: application\/json]\n"},{"result":{"nanos":1170700,"millis":1.1707,"status":"passed"},"step":{"line":8,"prefix":"Given","index":0,"text":"path '\/users?page=2'"}},{"result":{"nanos":1322869800,"millis":1322.8698,"status":"passed"},"step":{"line":9,"prefix":"When","index":1,"text":"method GET"},"stepLog":"09:12:31.582 request:\n1 > GET https:\/\/reqres.in\/api\/users%3Fpage=2\n1 > Host: reqres.in\n1 > Connection: Keep-Alive\n1 > User-Agent: Apache-HttpClient\/4.5.13 (Java\/1.8.0_121)\n1 > Accept-Encoding: gzip,deflate\n\n\n09:12:31.934 response time in milliseconds: 349\n1 < 200\n1 < Date: Sun, 03 Jul 2022 08:12:30 GMT\n1 < Content-Type: application\/json; charset=utf-8\n1 < Transfer-Encoding: chunked\n1 < Connection: keep-alive\n1 < X-Powered-By: Express\n1 < Access-Control-Allow-Origin: *\n1 < Etag: W\/\"2c1-N6Rqerxquq2kgQhL51EiSg4x0R8\"\n1 < Via: 1.1 vegur\n1 < Cache-Control: max-age=14400\n1 < CF-Cache-Status: MISS\n1 < Expect-CT: max-age=604800, report-uri=\"https:\/\/report-uri.cloudflare.com\/cdn-cgi\/beacon\/expect-ct\"\n1 < Report-To: {\"endpoints\":[{\"url\":\"https:\\\/\\\/a.nel.cloudflare.com\\\/report\\\/v3?s=u2nvq7A3UfYE%2FUCIsRdKiWiaQPmI8HFnKLLyqF%2BdRMF40E2TEravMFuEGvocMc8RYcpkBhSXpcFiYRrfL2LBxV6Wg%2Fd9q70H9Jqbq0WJQR%2F1rEtpXBaVIaOgqA%3D%3D\"}],\"group\":\"cf-nel\",\"max_age\":604800}\n1 < NEL: {\"success_fraction\":0,\"report_to\":\"cf-nel\",\"max_age\":604800}\n1 < Vary: Accept-Encoding\n1 < Server: cloudflare\n1 < CF-RAY: 724e28145c888879-LHR\n{\"page\":1,\"per_page\":6,\"total\":12,\"total_pages\":2,\"data\":[{\"id\":1,\"name\":\"cerulean\",\"year\":2000,\"color\":\"#98B2D1\",\"pantone_value\":\"15-4020\"},{\"id\":2,\"name\":\"fuchsia rose\",\"year\":2001,\"color\":\"#C74375\",\"pantone_value\":\"17-2031\"},{\"id\":3,\"name\":\"true red\",\"year\":2002,\"color\":\"#BF1932\",\"pantone_value\":\"19-1664\"},{\"id\":4,\"name\":\"aqua sky\",\"year\":2003,\"color\":\"#7BC4C4\",\"pantone_value\":\"14-4811\"},{\"id\":5,\"name\":\"tigerlily\",\"year\":2004,\"color\":\"#E2583E\",\"pantone_value\":\"17-1456\"},{\"id\":6,\"name\":\"blue turquoise\",\"year\":2005,\"color\":\"#53B0AE\",\"pantone_value\":\"15-5217\"}],\"support\":{\"url\":\"https:\/\/reqres.in\/#support-heading\",\"text\":\"To keep ReqRes free, contributions towards server costs are appreciated!\"}}\n\n"},{"result":{"nanos":17900,"millis":0.0179,"status":"passed"},"step":{"line":10,"prefix":"Then","index":2,"text":"status  200"}},{"result":{"nanos":62047000,"millis":62.047,"status":"passed"},"step":{"line":11,"prefix":"And","index":3,"text":"print response"},"stepLog":"09:12:32.025 [print] {\n  \"page\": 1,\n  \"per_page\": 6,\n  \"total\": 12,\n  \"total_pages\": 2,\n  \"data\": [\n    {\n      \"id\": 1,\n      \"name\": \"cerulean\",\n      \"year\": 2000,\n      \"color\": \"#98B2D1\",\n      \"pantone_value\": \"15-4020\"\n    },\n    {\n      \"id\": 2,\n      \"name\": \"fuchsia rose\",\n      \"year\": 2001,\n      \"color\": \"#C74375\",\n      \"pantone_value\": \"17-2031\"\n    },\n    {\n      \"id\": 3,\n      \"name\": \"true red\",\n      \"year\": 2002,\n      \"color\": \"#BF1932\",\n      \"pantone_value\": \"19-1664\"\n    },\n    {\n      \"id\": 4,\n      \"name\": \"aqua sky\",\n      \"year\": 2003,\n      \"color\": \"#7BC4C4\",\n      \"pantone_value\": \"14-4811\"\n    },\n    {\n      \"id\": 5,\n      \"name\": \"tigerlily\",\n      \"year\": 2004,\n      \"color\": \"#E2583E\",\n      \"pantone_value\": \"17-1456\"\n    },\n    {\n      \"id\": 6,\n      \"name\": \"blue turquoise\",\n      \"year\": 2005,\n      \"color\": \"#53B0AE\",\n      \"pantone_value\": \"15-5217\"\n    }\n  ],\n  \"support\": {\n    \"url\": \"https:\/\/reqres.in\/#support-heading\",\n    \"text\": \"To keep ReqRes free, contributions towards server costs are appreciated!\"\n  }\n}\n \n"},{"result":{"nanos":1773600,"millis":1.7736,"status":"passed"},"step":{"line":12,"prefix":"And","index":4,"text":"print responseStatus"},"stepLog":"09:12:32.028 [print] 200 \n"},{"result":{"nanos":1519900,"millis":1.5199,"status":"passed"},"step":{"line":13,"prefix":"And","index":5,"text":"print responseTime"},"stepLog":"09:12:32.030 [print] 349 \n"},{"result":{"nanos":1226300,"millis":1.2263,"status":"passed"},"step":{"line":14,"prefix":"And","index":6,"text":"print responseHeaders"},"stepLog":"09:12:32.031 [print] {\n  \"Date\": [\n    \"Sun, 03 Jul 2022 08:12:30 GMT\"\n  ],\n  \"Content-Type\": [\n    \"application\/json; charset=utf-8\"\n  ],\n  \"Transfer-Encoding\": [\n    \"chunked\"\n  ],\n  \"Connection\": [\n    \"keep-alive\"\n  ],\n  \"X-Powered-By\": [\n    \"Express\"\n  ],\n  \"Access-Control-Allow-Origin\": [\n    \"*\"\n  ],\n  \"Etag\": [\n    \"W\/\\\"2c1-N6Rqerxquq2kgQhL51EiSg4x0R8\\\"\"\n  ],\n  \"Via\": [\n    \"1.1 vegur\"\n  ],\n  \"Cache-Control\": [\n    \"max-age=14400\"\n  ],\n  \"CF-Cache-Status\": [\n    \"MISS\"\n  ],\n  \"Expect-CT\": [\n    \"max-age=604800, report-uri=\\\"https:\/\/report-uri.cloudflare.com\/cdn-cgi\/beacon\/expect-ct\\\"\"\n  ],\n  \"Report-To\": [\n    \"{\\\"endpoints\\\":[{\\\"url\\\":\\\"https:\\\\\/\\\\\/a.nel.cloudflare.com\\\\\/report\\\\\/v3?s=u2nvq7A3UfYE%2FUCIsRdKiWiaQPmI8HFnKLLyqF%2BdRMF40E2TEravMFuEGvocMc8RYcpkBhSXpcFiYRrfL2LBxV6Wg%2Fd9q70H9Jqbq0WJQR%2F1rEtpXBaVIaOgqA%3D%3D\\\"}],\\\"group\\\":\\\"cf-nel\\\",\\\"max_age\\\":604800}\"\n  ],\n  \"NEL\": [\n    \"{\\\"success_fraction\\\":0,\\\"report_to\\\":\\\"cf-nel\\\",\\\"max_age\\\":604800}\"\n  ],\n  \"Vary\": [\n    \"Accept-Encoding\"\n  ],\n  \"Server\": [\n    \"cloudflare\"\n  ],\n  \"CF-RAY\": [\n    \"724e28145c888879-LHR\"\n  ]\n}\n \n"},{"result":{"nanos":1174300,"millis":1.1743,"status":"passed"},"step":{"line":15,"prefix":"And","index":7,"text":"print responseCookies"},"stepLog":"09:12:32.032 [print] null \n"}],"executorName":"main","line":7,"name":"Get Demo 1","description":"","durationMillis":1473.6117,"startTime":1656835950547,"failed":false,"refId":"[1:7]","endTime":1656835952032,"exampleIndex":-1}],"callDepth":0,"name":"Get API Demo","description":"","resultDate":"2022-07-03 09:12:32 AM","durationMillis":1473.6117,"passedCount":1}